Media
{
	Images
	{
		"1"
		{
			index	1
			image	icon_hl2_media	// goes in vgui/notes.tga
		}
		"2"
		{
			index	2
			image	icon_document
		}
		"3"
		{
			index	3
			image	icon_soft
		}
		"4"
		{
			index	4
			image	icon_hammer
		}
		"5"
		{
			index	5
			image	icon_faceposer
		}
		"6"
		{
			index	6
			image	icon_hlmv
		}
		"7"
		{
			index	7
			image	icon_scenemanager
		}
		"8"
		{
			index	8
			image	icon_weblink
		}
		"9"
		{
			index	9
			image icon_create
		}
		"10"
		{
			index	10
			image icon_refresh
		}
		"11"
		{
			index	11
			image icon_reset
		}
		"12"
		{
			index	12
			image icon_folder
		}
		"13"
		{
			index	13
			image icon_files
		}
	}

	Sections
	{
		"1"
		{
			id		1
			Name	"Applications"

			hammer
			{
				Title			"Hammer World Editor"
				Program			"hammer.exe -game \"%gamedir%\" -nop4"
				Image			4
			}
			hlmv
			{
				Title			"Model Viewer"
				Program			"hlmv.exe -game \"%gamedir%\" -nop4"
				Image			6
			}
			faceposer
			{
				Title			"Face Poser"
				Program			"hlfaceposer.exe -game \"%gamedir%\" -nop4"
				Image			5
			}
			enginetools
			{
				Title			"Engine (Tools Mode)"
				Program			"hl2.exe -game \"%gamedir%\" -tools -dev -nop4 -override_vpk"
				Image			7
			}
			game
			{
				Title			"Start Game"
				Program			"hl2.exe -game \"%gamedir%\" -dev -nop4 -override_vpk"
				Image			1
			}

		}
		"2"
		{
			id		2
			Name	"Utilities"
			
			editconfigs
			{
				Title			"Edit Game Configurations"
				Image			2

				Program			"vconfig.exe"
			}
	
		}
		"3"
		{
			id		3
			Name	"Documentation"
			
			l4dstart
			{
				Title			"Getting Started Guide"
				ShellExecute		"https://developer.valvesoftware.com/wiki/SDK_Docs"
				Image			8
			}
			example
			{
				Title			"Example Content"
				ShellExecute		".\\sdk_content"
				Image			13
			}
		}
	}
}
